<?xml version="1.0" encoding="utf-8"?>
<!-- Generator: Adobe Illustrator 21.0.0, SVG Export Plug-In . SVG Version: 6.00 Build 0)  -->
<svg version="1.1" xmlns="http://www.w3.org/2000/svg" xmlns:xlink="http://www.w3.org/1999/xlink" x="0px" y="0px"
	 viewBox="0 0 2223.9 1120" style="enable-background:new 0 0 2223.9 1120;" xml:space="preserve">
<style type="text/css">
	.st0{fill:#C6CACD;}
	.st1{fill:#FFFFFF;}
	.st2{fill:#FFFFFF;stroke:#FFFFFF;stroke-width:10;stroke-miterlimit:10;}
	.st3{fill:#6A787E;}
</style>
<g id="BG">
	<path class="st0" d="M2132,365h-19l-1-268.9h-289v16.5h-186.5V90H587.1v19.5h-96.7l-90,90l5.5,5.5L315,295.9l-4.5-4.5L284.9,317
		l9.9,9.9l-13.6,12.9L48,208.6l5.4,13.2c0.5,1.1,47.8,116.4,159.6,274.7c65.6,92.9,140.4,182.4,222.2,265.9
		c101.3,103.4,213.7,197.9,334.1,280.8l-6.9,10.7c-74.5-47.3-149.3-104.2-222.4-169C480.4,832.1,421.8,773.8,366,711.8
		c-76.1-84.6-132-159.7-150.8-187.6l-8.3,5.6c19,28.1,75.1,103.6,151.6,188.5c56.1,62.3,114.9,120.9,174.8,174
		c74.8,66.4,151.5,124.6,227.9,172.7l4.2,2.6l12.3-18.9c12.1,7,25.8,10.7,39.9,10.7c44,0,79.8-35.8,79.8-79.8
		c0-12.5-2.9-24.7-8.5-35.8l30.9-30.8H1446V927h669v-24l0-5h0l-1.8-487h18.8V365z"/>
</g>
<g id="elevators_and_stairs">
	<path class="st1" d="M620.8,396.1c-44,0-79.7-35.7-79.7-79.7c0-44,35.7-79.7,79.7-79.7c44,0,79.7,35.7,79.7,79.7
		C700.5,360.4,664.9,396.1,620.8,396.1z"/>
	<path class="st2" d="M525.9,129.3"/>
	<g>
		<rect x="1288.5" y="536.6" width="29" height="3.4"/>
		<rect x="1288.5" y="526.6" width="29" height="3.4"/>
		<rect x="1288.5" y="546.6" width="29" height="3.4"/>
		<rect x="1288.5" y="556.6" width="29" height="3.4"/>
		<rect x="1288.5" y="516.6" width="29" height="3.4"/>
		<rect x="1288.5" y="506.6" width="29" height="3.4"/>
		<rect x="1288.5" y="496.6" width="29" height="3.4"/>
		<rect x="1288.5" y="486.6" width="29" height="3.4"/>
		<rect x="1288.5" y="487.3" width="3.4" height="110.3"/>
		<rect x="1314" y="487.3" width="3.4" height="110.3"/>
		<rect x="1288.5" y="596.6" width="29" height="3.4"/>
		<polygon points="1310.8,574.9 1303,567.1 1303,567.1 1303,567.1 1295.2,574.9 1297.6,577.3 1301.3,573.6 1301.3,590.1
			1304.7,590.1 1304.7,573.6 1308.4,577.3 		"/>
	</g>
	<g>
		<rect x="562.7" y="306.8" transform="matrix(0.7071 -0.7071 0.7071 0.7071 -49.1081 498.5389)" width="29" height="3.4"/>
		<rect x="569.8" y="313.9" transform="matrix(0.7071 -0.7071 0.7071 0.7071 -52.037 505.61)" width="29" height="3.4"/>
		<rect x="555.6" y="299.8" transform="matrix(0.7071 -0.7071 0.7071 0.7071 -46.1791 491.4678)" width="29" height="3.4"/>
		<rect x="548.6" y="292.7" transform="matrix(0.7071 -0.7071 0.7071 0.7071 -43.2502 484.3968)" width="29" height="3.4"/>
		<rect x="576.9" y="321" transform="matrix(0.7071 -0.7071 0.7071 0.7071 -54.9659 512.681)" width="29" height="3.4"/>
		<rect x="583.9" y="328.1" transform="matrix(0.7071 -0.7071 0.7071 0.7071 -57.8949 519.7521)" width="29" height="3.4"/>
		<rect x="591" y="335.1" transform="matrix(0.7071 -0.7071 0.7071 0.7071 -60.8238 526.8232)" width="29" height="3.4"/>
		<rect x="598.1" y="342.2" transform="matrix(0.7071 -0.7071 0.7071 0.7071 -63.7527 533.8942)" width="29" height="3.4"/>
		<rect x="609.6" y="229.8" transform="matrix(0.7071 -0.7071 0.7071 0.7071 -50.398 527.278)" width="3.4" height="189.3"/>
		<rect x="591.5" y="247.9" transform="matrix(0.7071 -0.7071 0.7071 0.7071 -68.4513 519.8)" width="3.4" height="189.3"/>
		<rect x="520.3" y="264.4" transform="matrix(0.7071 -0.7071 0.7071 0.7071 -31.5345 456.1125)" width="29" height="3.4"/>
		<polygon points="545.9,288.2 556.9,288.2 556.9,288.2 556.9,288.2 556.9,277.2 553.5,277.2 553.5,282.4 541.8,270.7 539.4,273.1
			551.1,284.8 545.9,284.8 		"/>
		<rect x="605.1" y="349.3" transform="matrix(0.7071 -0.7071 0.7071 0.7071 -66.6817 540.9653)" width="29" height="3.4"/>
		<rect x="612.2" y="356.3" transform="matrix(0.7071 -0.7071 0.7071 0.7071 -69.6106 548.0364)" width="29" height="3.4"/>
		<rect x="619.3" y="363.4" transform="matrix(0.7071 -0.7071 0.7071 0.7071 -72.5395 555.1074)" width="29" height="3.4"/>
		<rect x="626.4" y="370.5" transform="matrix(0.7071 -0.7071 0.7071 0.7071 -75.4685 562.1785)" width="29" height="3.4"/>
		<rect x="633.4" y="377.6" transform="matrix(0.7071 -0.7071 0.7071 0.7071 -78.3974 569.2496)" width="29" height="3.4"/>
		<rect x="640.5" y="384.6" transform="matrix(0.7071 -0.7071 0.7071 0.7071 -81.3263 576.3206)" width="29" height="3.4"/>
		<rect x="647.6" y="391.7" transform="matrix(0.7071 -0.7071 0.7071 0.7071 -84.2553 583.3917)" width="29" height="3.4"/>
		<rect x="654.6" y="398.8" transform="matrix(0.7071 -0.7071 0.7071 0.7071 -87.1842 590.4628)" width="29" height="3.4"/>
	</g>
	<g>
		<rect x="1594.7" y="685" width="3.4" height="29"/>
		<rect x="1604.7" y="685" width="3.4" height="29"/>
		<rect x="1584.7" y="685" width="3.4" height="29"/>
		<rect x="1574.7" y="685" width="3.4" height="29"/>
		<rect x="1614.7" y="685" width="3.4" height="29"/>
		<rect x="1624.7" y="685" width="3.4" height="29"/>
		<rect x="1634.7" y="685" width="3.4" height="29"/>
		<rect x="1644.7" y="685" width="3.4" height="29"/>
		<rect x="1537.1" y="685" width="169.3" height="3.4"/>
		<rect x="1537.1" y="710.5" width="169.3" height="3.4"/>
		<rect x="1534.7" y="685" width="3.4" height="29"/>
		<polygon points="1559.8,707.3 1567.6,699.5 1567.6,699.5 1567.6,699.5 1559.8,691.7 1557.4,694.1 1561.1,697.8 1544.5,697.8
			1544.5,701.2 1561.1,701.2 1557.4,704.9 		"/>
		<rect x="1654.7" y="685" width="3.4" height="29"/>
		<rect x="1664.7" y="685" width="3.4" height="29"/>
		<rect x="1674.7" y="685" width="3.4" height="29"/>
		<rect x="1684.7" y="685" width="3.4" height="29"/>
		<rect x="1694.7" y="685" width="3.4" height="29"/>
		<rect x="1704.7" y="685" width="3.4" height="29"/>
	</g>
	<path class="st0" d="M543.3,393.9c20.7,20.7,48.3,32.1,77.6,32.1c29.3,0,56.8-11.4,77.6-32.1c20.7-20.7,32.1-48.3,32.1-77.6
		c0-29.3-11.4-56.8-32.1-77.6L677.2,260c31.1,31.1,31.1,81.6,0,112.7c-31.1,31.1-81.6,31.1-112.7,0L543.3,393.9z"/>
	<g>
		<path d="M1300.9,729.2v-3.4H1266v1.7h0v29.6h0v2.4h34.9v-3.4h0L1300.9,729.2L1300.9,729.2z M1297.5,756.1h-28.1v-26.9h28.1V756.1z
			"/>
		<polyline points="1283.5,742.4 1288.8,747.8 1291.3,745.4 1283.5,737.6 1283.5,737.6 1283.5,737.6 1275.7,745.4 1278.1,747.8
			1283.5,742.4 		"/>
		<g>
			<path d="M1306,756.1v3.4h34.9v-1.7h0v-29.6h0v-2.4H1306v3.4h0L1306,756.1L1306,756.1z M1309.4,729.2h28.1v26.9h-28.1V729.2z"/>
			<polyline points="1323.5,743 1318.1,737.6 1315.7,740 1323.5,747.8 1323.5,747.8 1323.5,747.8 1331.3,740 1328.8,737.6
				1323.5,743 			"/>
		</g>
	</g>
	<g>
		<path d="M722.5,563.9v-3.4h-34.9v1.7h0v29.6h0v2.4h34.9v-3.4h0L722.5,563.9L722.5,563.9z M719.1,590.8H691v-26.9h28.1V590.8z"/>
		<polyline points="705,577.1 710.4,582.5 712.8,580 705,572.3 705,572.3 705,572.3 697.2,580 699.6,582.5 705,577.1 		"/>
		<g>
			<path d="M727.6,590.8v3.4h34.9v-1.7h0v-29.6h0v-2.4h-34.9v3.4h0L727.6,590.8L727.6,590.8z M731,563.9h28.1v26.9H731V563.9z"/>
			<polyline points="745,577.6 739.6,572.3 737.2,574.7 745,582.5 745,582.4 745,582.5 752.8,574.7 750.4,572.3 745,577.6 			"/>
		</g>
	</g>
	<g>
		<path d="M1446,832.8v-3.4H1411v1.7h0v29.6h0v2.4h34.9v-3.4h0L1446,832.8L1446,832.8z M1442.6,859.7h-28.1v-26.9h28.1V859.7z"/>
		<polyline points="1428.5,845.9 1433.9,851.3 1436.3,848.9 1428.5,841.1 1428.5,841.1 1428.5,841.1 1420.7,848.9 1423.1,851.3
			1428.5,845.9 		"/>
		<g>
			<path d="M1411,899.7v3.4h34.9v-1.7h0v-29.6h0v-2.4H1411v3.4h0L1411,899.7L1411,899.7z M1414.4,872.8h28.1v26.9h-28.1V872.8z"/>
			<polyline points="1428.5,886.5 1423.1,881.1 1420.7,883.5 1428.5,891.3 1428.5,891.3 1428.5,891.3 1436.3,883.5 1433.9,881.1
				1428.5,886.5 			"/>
		</g>
	</g>
	<g>
		<rect x="1060.9" y="110" width="41.7" height="3.4"/>
		<rect x="1060.9" y="100" width="41.7" height="3.4"/>
		<rect x="1060.9" y="120" width="41.7" height="3.4"/>
		<rect x="1060.9" y="101.7" width="3.4" height="50"/>
		<rect x="1099.2" y="101.7" width="3.4" height="50"/>
		<rect x="1060.9" y="150" width="41.7" height="3.4"/>
		<polygon points="1089.2,135.3 1081.4,127.5 1081.4,127.5 1081.4,127.5 1073.6,135.3 1076,137.7 1079.7,134 1079.7,144.6
			1083.1,144.6 1083.1,134 1086.8,137.7 		"/>
	</g>
	<g>
		<rect x="1112.4" y="110" width="41.7" height="3.4"/>
		<rect x="1112.4" y="100" width="41.7" height="3.4"/>
		<rect x="1112.4" y="120" width="41.7" height="3.4"/>
		<rect x="1112.4" y="101.7" width="3.4" height="50"/>
		<rect x="1150.7" y="101.7" width="3.4" height="50"/>
		<rect x="1112.4" y="150" width="41.7" height="3.4"/>
		<polygon points="1125.2,136.8 1133,144.6 1133,144.5 1133,144.6 1140.8,136.8 1138.4,134.4 1134.7,138 1134.7,127.5 1131.3,127.5
			1131.3,138 1127.6,134.4 		"/>
	</g>
</g>
<g id="space">
	<rect id="В40_x5F_В20" x="1400.5" y="561.8" class="st3" width="43.5" height="93.2"/>
	<rect id="В18" x="1347.1" y="561.8" class="st3" width="43.4" height="43.4"/>
	<rect id="В41" x="1347.1" y="615.3" class="st3" width="43.4" height="39.7"/>
	<rect id="B49_x5F_B14" x="1360.6" y="854.6" class="st3" width="24.5" height="48.5"/>
	<polygon id="В39" class="st3" points="1425.1,804.1 1475.1,804.1 1475,739.3 1425.1,739.3 	"/>
	<polygon id="B13-1" class="st3" points="1594,840 1594,739.3 1551,739.3 1551,825 1562,825 1562,840 	"/>
	<polygon id="B13-2" class="st3" points="1636,739.3 1604,739.3 1604,840 1608,840 1608,835 1636,835 	"/>
	<rect id="B12" x="1485.1" y="739.3" class="st3" width="55.9" height="85.7"/>
	<rect id="B21_x2C_42_x5F_B43" x="1160" y="339.1" class="st3" width="100.6" height="117.9"/>
	<rect id="B20-1_x5F_B42" x="1160" y="467" class="st3" width="100.6" height="36.8"/>
	<rect id="B20-1_x5F_B41" x="1160" y="513.8" class="st3" width="100.6" height="36.8"/>
	<rect id="B19_x5F_B40" x="1210.6" y="560.5" class="st3" width="50" height="94.5"/>
	<rect id="B19_x5F_B39" x="1160" y="560.5" class="st3" width="40.6" height="94.5"/>
	<rect id="B33_x5F_B33" x="1062" y="560.5" class="st3" width="88" height="94.5"/>
	<rect id="B32_x5F_B37" x="966" y="560.5" class="st3" width="86" height="94.5"/>
	<rect id="B31_x5F_B36" x="869.3" y="560.5" class="st3" width="86.7" height="94.5"/>
	<rect id="B30_x5F_B35" x="772.5" y="560.5" class="st3" width="86.8" height="94.5"/>
	<polygon id="B29_x5F_B34" class="st3" points="573,562.9 643.5,633.4 643.5,560.5 573,560.5 	"/>
	<path id="B28_x5F_B33" class="st3" d="M630.4,443.5l-0.4,0l-57,0v107.1l189.5,0V467h-99.8v-30.2
		C652.3,440.4,641.4,442.6,630.4,443.5z"/>
	<path id="B27_x5F_B32" class="st3" d="M746.4,339.1c-7.5,41.2-35.2,76.6-73.6,93.7l0,24.2h89.7V339.1H746.4z"/>
	<polygon id="B26_x5F_B47" class="st3" points="772.5,339.1 772.5,550.5 956,550.5 956,467 859.3,467 859.3,339.1 	"/>
	<rect id="B24_x5F_B46" x="869.3" y="339.1" class="st3" width="86.7" height="117.9"/>
	<polygon id="B25_x5F_B45" class="st3" points="966,339.1 966,550.5 1150,550.5 1150,467 1052,467 1052,339.1 	"/>
	<rect id="B22_x5F_B44" x="1062" y="339.1" class="st3" width="88" height="117.9"/>
	<rect id="K36_x5F_KB5" x="715.6" y="685" class="st3" width="27.2" height="27.2"/>
	<rect id="KB3" x="509" y="507" class="st3" width="27.2" height="27.2"/>
	<rect id="К88_x5F_КВ13" x="869.3" y="276.1" class="st3" width="16.9" height="14.6"/>
	<rect id="К32_x5F_КВ11" x="1136.6" y="293.1" class="st3" width="36.8" height="19"/>
	<rect id="К30_x5F_КВ12" x="947.3" y="293.1" class="st3" width="39.1" height="19"/>
	<rect id="KB15" x="1183" y="685" class="st3" width="53.1" height="23.4"/>
	<rect id="KВ7" x="1282" y="676.5" class="st3" width="42" height="27.5"/>
	<rect id="K21_x5F_KB10" x="1288.5" y="395.6" class="st3" width="29" height="83.4"/>
	<polygon id="В9_x5F_B8" class="st3" points="757.1,731 752.3,735.9 859.3,842.8 859.3,731 	"/>
	<polygon id="В10-1_x5F_В9" class="st3" points="921.3,865.3 921.3,835.7 956,835.7 956,731 869.3,731 869.3,852.8 887.2,870.7
		892.6,865.3 	"/>
	<rect id="В10-2_x5F_В10" x="966" y="731" class="st3" width="86" height="112.7"/>
	<rect id="B11" x="1062" y="731" class="st3" width="88" height="172.1"/>
	<polygon id="В16_x5F_B13" class="st3" points="1253,903.1 1253,850.4 1213.1,800.4 1160,800.4 1160,903.1 	"/>
	<polygon id="В48_x5F_B12" class="st3" points="1160,733.9 1160,790.4 1205.1,790.4 	"/>
	<path id="K43-1_x5F_KB1" class="st3" d="M549,381.6l12.8-11.6c-9.3-10.3-16-23-19-37.1l-17,3.6C529.5,353.6,537.6,369,549,381.6z"
		/>
	<path id="KB14-1" class="st3" d="M632.1,237.5c16.8,2.4,32,10,43.7,21.2l12-12.6c-14.3-13.6-32.7-22.9-53.2-25.9L632.1,237.5z"/>
	<path id="KB14-2_x0A_" class="st3" d="M567.8,256.9c10.6-9.5,23.7-16.1,38.3-18.9l-3.2-17c-17.7,3.3-33.7,11.5-46.6,23L567.8,256.9
		z"/>
	<path id="K26_x5F_КВ2" class="st3" d="M641,411.3l-3.6-17c-5.3,1.1-10.9,1.7-16.5,1.7c-17.1,0-33-5.4-46-14.6l-10,14.2
		c15.8,11.2,35.1,17.8,56,17.8C627.7,413.4,634.5,412.7,641,411.3z"/>
	<path id="K34_x5F_KB14" class="st3" d="M697.2,376.2c13-16.5,20.7-37.3,20.7-59.9c0-19.8-5.9-38.2-16.1-53.6l-14.5,9.6
		c8.4,12.6,13.2,27.7,13.2,44c0,18.6-6.4,35.6-17,49.2L697.2,376.2z"/>
	<path id="R1_x5F_B31" class="st3" d="M693.7,211.7c19.7,13.7,35,32.5,44.4,54.4h38.2V100H597.1v9.5h29.8V189
		C651,190.1,674,197.9,693.7,211.7z"/>
	<rect id="B38_x5F_B30" x="786.3" y="100" class="st3" width="73" height="166.1"/>
	<rect id="B37_x5F_B29" x="869.3" y="100" class="st3" width="73" height="166.1"/>
	<rect id="B36_x5F_B28" x="952.3" y="100" class="st3" width="68.3" height="166.1"/>
	<rect id="В46_x5F_В27" x="1062" y="181" class="st3" width="40.6" height="85.1"/>
	<rect id="В35_x5F_В26" x="1112.6" y="181" class="st3" width="41.4" height="85.1"/>
	<rect id="B34_x5F_B25" x="1164" y="100" class="st3" width="85.4" height="166.1"/>
	<rect id="B23_x5F_B24" x="1259.4" y="100" class="st3" width="184.5" height="166.1"/>
	<polygon id="B15_x5F_B23" class="st3" points="1737,216 1752,216 1752,180 1626.6,180 1626.6,100 1453.9,100 1453.9,276.1
		1347.1,276.1 1347.1,359 1710,359 1710,304 1737,304 	"/>
	<polygon id="B14_x5F_B18" class="st3" points="1710,655 1710,369 1347.1,369 1347.1,457 1551,457 1551,655 	"/>
	<polygon id="B17_x5F_B19" class="st3" points="1541,655 1541,467 1347.1,467 1347.1,551.8 1454,551.8 1454,655 	"/>
	<path id="B8_x5F_R2" class="st3" d="M778.5,1037.6c11.5,7.8,25,11.9,38.9,11.9c18.5,0,36.2-7.4,49.2-20.3l-98.5-101.3l37-34.3
		l-98.4-124.6l-120.7,121c61,52.2,125.6,101.8,192.1,147.5L778.5,1037.6z"/>
	<polygon id="B7" class="st3" points="670.6,723 631.6,723 602,753.9 655.5,806.1 700.5,760.9 	"/>
	<path id="B6" class="st3" d="M588,754.1l34.5-36L568,663.9l-35.7,35.1l-58.2-58.9l-72.5,72.5c55.4,59.6,114.9,117,176.9,170.6
		l69.9-70.1L588,754.1z"/>
	<path id="B5_x5F_B4" class="st3" d="M135.2,358.1c49.3,83.7,133.8,210.6,259.5,347.3l107.1-107.1l-34.4-34.2v-39.7L336.9,420.7
		L318,439.6l-68.3-68.3l24.1-24.1l-81.6-45.9l-0.2,0.1l-11,11c6.3,10.8,6,22.9-1.3,30.1c-7.2,7.2-19.4,7.5-30.1,1.2L135.2,358.1z"/>
	<polygon id="B4_x5F_B5" class="st3" points="532.4,684.9 560.9,656.9 509,605.3 481.1,633.1 	"/>
	<polygon id="B3" class="st3" points="475.5,456.9 493.6,438.8 493.6,369.7 380.5,369.7 366.3,384.3 370.1,388 366,392.1
		465.9,471.6 475.5,461.9 	"/>
	<path id="B2" class="st3" d="M472,271.1l-59-59l-98,98l-4.5-4.5L299.1,317l60.2,60.2l16.9-17.5h117.4v-37.9c-0.1-2-0.1-3.7-0.1-5.5
		c0-15.6,2.8-30.8,8.2-45.2L472,271.1z"/>
	<path id="В1" class="st3" d="M563,202.8V190h-59v-70.5h-9.4l-80,80l61.6,61.6l29.8,0.1C518.1,236,538.2,215.5,563,202.8z"/>
</g>
</svg>
