<svg id="95408b0e-f7c5-45e5-bc2b-8d435eb44a64" data-name="Слой 1" xmlns="http://www.w3.org/2000/svg" xmlns:xlink="http://www.w3.org/1999/xlink" width="524.64" height="350" viewBox="0 0 524.64 350">
  <defs>
    <style>
      .c99ee2c7-6bfc-4011-8e3b-f51e32c52afe {
        fill: none;
      }

      .\30 0e33a56-bf91-4177-9865-c2bd60c1c51e {
        clip-path: url(#c158ea6c-463e-41fb-995a-0857a84b8218);
      }

      .d2e34554-7f8d-4bed-933d-6649cd6e67cf {
        isolation: isolate;
      }

      .\37 852f28a-664f-4ba9-addf-45c0bdd978a8 {
        fill: #fefefe;
        fill-opacity: 0;
      }
    </style>
    <clipPath id="c158ea6c-463e-41fb-995a-0857a84b8218" transform="translate(-37.68 0)">
      <rect class="c99ee2c7-6bfc-4011-8e3b-f51e32c52afe" x="37.5" width="525" height="350"/>
    </clipPath>
  </defs>
  <title>1 (1)</title>
  <g id="a00129d7-e6fc-408f-9408-bb9d241e404b" data-name="Слой_1">
    <g class="00e33a56-bf91-4177-9865-c2bd60c1c51e">

    </g>
    <path class="7852f28a-664f-4ba9-addf-45c0bdd978a8" d="M144.92,237.09h33.31v4.16l4.41-.05.08-3.88h3.72l0-3.94h6.16l0-10.62,32.22,0-.1,10.6,7.08,0,.07-10.61,19.37.2.25,26.43-10.86,0,.14,18.62-4.39-.05,0,5.41h1l0,20.65-60.66-.42.12-19.22-5.46.05v.9l-16,.24v-.87c-6.8-.15-11-6.23-10.65-13.14h-.81l.14-21.27h.62l0-3.25Z" transform="translate(-37.68 0)"/>
    <path class="7852f28a-664f-4ba9-addf-45c0bdd978a8" d="M381.58,224.08h12.3l-.07-8.21,8.05-.07.07,8.28h24.23L428,233l4.61-.9,1.14,5.39,3.49-.15,5.39,24.08v1.06l-13.14.08.16,31.14-2.66.15-.08,1.06-8.51-.15-.07-1h-7l-.08,1.14-8.81.08V293.8h-7l-.23,1.14h-8.66V293.8h-5c.07-25.21-.18-47.65.45-69.72Z" transform="translate(-37.68 0)"/>
    <path class="7852f28a-664f-4ba9-addf-45c0bdd978a8" d="M443.29,222.9l30.34.15.08,5,5.62,0,.08-5.24,15.53.12.15,1.82,1.56.83.45-.19c18.52,15.08,11.58,37.33,5.88,45.7-6.69,9.83-32.72,22.34-51.41.6h-8.36l0-9.15L438.77,241h4.48l0-18.11Z" transform="translate(-37.68 0)"/>
  </g>
</svg>
